{
  "items": [
    {
      "external_urls": {
        "spotify": "https://open.spotify.com/artist/1vCWHaC5f2uS3yhpwWbIA6"
      },
      "followers": {
        "href": null,
        "total": 13895048
      },
      "genres": [
        "big room",
        "edm",
        "pop"
      ],
      "href": "https://api.spotify.com/v1/artists/1vCWHaC5f2uS3yhpwWbIA6",
      "id": "1vCWHaC5f2uS3yhpwWbIA6",
      "images": [
        {
          "height": 640,
          "url": "https://i.scdn.co/image/81b19a403109c4fe528ee3972137127b85be9519",
          "width": 640
        },
        {
          "height": 320,
          "url": "https://i.scdn.co/image/9c0d8fa969a9f5db6ff860203d6880a125e501d2",
          "width": 320
        },
        {
          "height": 160,
          "url": "https://i.scdn.co/image/c55bc6f57b6bb297425c3ae694f92672dcf0e2c2",
          "width": 160
        }
      ],
      "name": "Avicii",
      "popularity": 94,
      "type": "artist",
      "uri": "spotify:artist:1vCWHaC5f2uS3yhpwWbIA6"
    },
    {
      "external_urls": {
        "spotify": "https://open.spotify.com/artist/1TtJ8j22Roc24e2Jx3OcU4"
      },
      "followers": {
        "href": null,
        "total": 457139
      },
      "genres": [
        "canadian electropop",
        "chillwave",
        "edmonton indie",
        "electropop",
        "grave wave",
        "indie poptimism",
        "indietronica",
        "metropopolis",
        "pop",
        "shimmer pop"
      ],
      "href": "https://api.spotify.com/v1/artists/1TtJ8j22Roc24e2Jx3OcU4",
      "id": "1TtJ8j22Roc24e2Jx3OcU4",
      "images": [
        {
          "height": 640,
          "url": "https://i.scdn.co/image/0d1a802193e294c50f0bd9d97d4de48216e85678",
          "width": 640
        },
        {
          "height": 320,
          "url": "https://i.scdn.co/image/998fc1cbfbc039a3c10bbc66e5c4bdf4723647ca",
          "width": 320
        },
        {
          "height": 160,
          "url": "https://i.scdn.co/image/8e9dc321a351b9206c0d3c969668922813892dfb",
          "width": 160
        }
      ],
      "name": "Purity Ring",
      "popularity": 61,
      "type": "artist",
      "uri": "spotify:artist:1TtJ8j22Roc24e2Jx3OcU4"
    },
    {
      "external_urls": {
        "spotify": "https://open.spotify.com/artist/1rSGNXhhYuWoq9BEz5DZGO"
      },
      "followers": {
        "href": null,
        "total": 121296
      },
      "genres": [
        "big room",
        "edm",
        "electro house",
        "pop edm",
        "progressive electro house",
        "progressive house",
        "progressive trance",
        "trance",
        "tropical house",
        "uplifting trance"
      ],
      "href": "https://api.spotify.com/v1/artists/1rSGNXhhYuWoq9BEz5DZGO",
      "id": "1rSGNXhhYuWoq9BEz5DZGO",
      "images": [
        {
          "height": 640,
          "url": "https://i.scdn.co/image/0dd9c9e557858859ac5b8051092b94e5d1cd2b7b",
          "width": 640
        },
        {
          "height": 320,
          "url": "https://i.scdn.co/image/b9b7bb07d7a7c01f2df0c55ab0517d74838e75ca",
          "width": 320
        },
        {
          "height": 160,
          "url": "https://i.scdn.co/image/46bdf5c1ca540439f52d26662ff8c5c8b9aa0500",
          "width": 160
        }
      ],
      "name": "ARTY",
      "popularity": 69,
      "type": "artist",
      "uri": "spotify:artist:1rSGNXhhYuWoq9BEz5DZGO"
    },
    {
      "external_urls": {
        "spotify": "https://open.spotify.com/artist/0Cd6nHYwecCNM1sVEXKlYr"
      },
      "followers": {
        "href": null,
        "total": 729608
      },
      "genres": [
        "big room",
        "brostep",
        "catstep",
        "dance pop",
        "edm",
        "electra",
        "electro house",
        "pop"
      ],
      "href": "https://api.spotify.com/v1/artists/0Cd6nHYwecCNM1sVEXKlYr",
      "id": "0Cd6nHYwecCNM1sVEXKlYr",
      "images": [
        {
          "height": 640,
          "url": "https://i.scdn.co/image/e59130a233d2b8b8f5183919cfd794d17ca0c2e7",
          "width": 640
        },
        {
          "height": 320,
          "url": "https://i.scdn.co/image/6390f8d2ebde414c2d1985c0cafce2735ff2b13d",
          "width": 320
        },
        {
          "height": 160,
          "url": "https://i.scdn.co/image/85d7e2cf57a074e3b85e573917b935d0fd424000",
          "width": 160
        }
      ],
      "name": "Krewella",
      "popularity": 68,
      "type": "artist",
      "uri": "spotify:artist:0Cd6nHYwecCNM1sVEXKlYr"
    },
    {
      "external_urls": {
        "spotify": "https://open.spotify.com/artist/4sTQVOfp9vEMCemLw50sbu"
      },
      "followers": {
        "href": null,
        "total": 2613197
      },
      "genres": [
        "big room",
        "dance pop",
        "edm",
        "electro house",
        "pop",
        "tropical house"
      ],
      "href": "https://api.spotify.com/v1/artists/4sTQVOfp9vEMCemLw50sbu",
      "id": "4sTQVOfp9vEMCemLw50sbu",
      "images": [
        {
          "height": 640,
          "url": "https://i.scdn.co/image/5f57c69e2c34edb9847af7ada2e67449d1754df1",
          "width": 640
        },
        {
          "height": 320,
          "url": "https://i.scdn.co/image/ee7bfb312bb89c01762c9a8912abd9931639487c",
          "width": 320
        },
        {
          "height": 160,
          "url": "https://i.scdn.co/image/f890bef481e6459d799143f76c7edc59c4ae347b",
          "width": 160
        }
      ],
      "name": "Galantis",
      "popularity": 80,
      "type": "artist",
      "uri": "spotify:artist:4sTQVOfp9vEMCemLw50sbu"
    },
    {
      "external_urls": {
        "spotify": "https://open.spotify.com/artist/66CXWjxzNUsdJxJ2JdwvnR"
      },
      "followers": {
        "href": null,
        "total": 31470881
      },
      "genres": [
        "dance pop",
        "pop",
        "post-teen pop"
      ],
      "href": "https://api.spotify.com/v1/artists/66CXWjxzNUsdJxJ2JdwvnR",
      "id": "66CXWjxzNUsdJxJ2JdwvnR",
      "images": [
        {
          "height": 640,
          "url": "https://i.scdn.co/image/b1dfbe843b0b9f54ab2e588f33e7637d2dab065a",
          "width": 640
        },
        {
          "height": 320,
          "url": "https://i.scdn.co/image/b189cb24f45db92780d1aa6c81aee69b8defa03a",
          "width": 320
        },
        {
          "height": 160,
          "url": "https://i.scdn.co/image/3c4516cf74d09cf93db7536ce8826df28fba4156",
          "width": 160
        }
      ],
      "name": "Ariana Grande",
      "popularity": 96,
      "type": "artist",
      "uri": "spotify:artist:66CXWjxzNUsdJxJ2JdwvnR"
    },
    {
      "external_urls": {
        "spotify": "https://open.spotify.com/artist/0hprEC0nsWuQPSHag1O2Vi"
      },
      "followers": {
        "href": null,
        "total": 185592
      },
      "genres": [
        "big room",
        "edm",
        "progressive electro house",
        "progressive house",
        "progressive trance",
        "trance",
        "uplifting trance"
      ],
      "href": "https://api.spotify.com/v1/artists/0hprEC0nsWuQPSHag1O2Vi",
      "id": "0hprEC0nsWuQPSHag1O2Vi",
      "images": [
        {
          "height": 640,
          "url": "https://i.scdn.co/image/ec31cf87a918769918ded7aafe4584bd93bb5273",
          "width": 640
        },
        {
          "height": 320,
          "url": "https://i.scdn.co/image/2fb0689725347d90c0579dd79029c887811aebce",
          "width": 320
        },
        {
          "height": 160,
          "url": "https://i.scdn.co/image/94d858906c616fdcf03a8862e13b6d0810ef3647",
          "width": 160
        }
      ],
      "name": "Gareth Emery",
      "popularity": 65,
      "type": "artist",
      "uri": "spotify:artist:0hprEC0nsWuQPSHag1O2Vi"
    },
    {
      "external_urls": {
        "spotify": "https://open.spotify.com/artist/7jVv8c5Fj3E9VhNjxT4snq"
      },
      "followers": {
        "href": null,
        "total": 467416
      },
      "genres": [
        "country rap"
      ],
      "href": "https://api.spotify.com/v1/artists/7jVv8c5Fj3E9VhNjxT4snq",
      "id": "7jVv8c5Fj3E9VhNjxT4snq",
      "images": [
        {
          "height": 640,
          "url": "https://i.scdn.co/image/12d5ab979779aa41e697ce823328d527e643e4cf",
          "width": 640
        },
        {
          "height": 320,
          "url": "https://i.scdn.co/image/9b69d444aa29e8ca38cf48382165b9e6dba70718",
          "width": 320
        },
        {
          "height": 160,
          "url": "https://i.scdn.co/image/2167ae6119a3e8d9f619f00cf1591d784d5c3f66",
          "width": 160
        }
      ],
      "name": "Lil Nas X",
      "popularity": 93,
      "type": "artist",
      "uri": "spotify:artist:7jVv8c5Fj3E9VhNjxT4snq"
    },
    {
      "external_urls": {
        "spotify": "https://open.spotify.com/artist/23fqKkggKUBHNkbKtXEls4"
      },
      "followers": {
        "href": null,
        "total": 5050950
      },
      "genres": [
        "edm",
        "pop",
        "tropical house"
      ],
      "href": "https://api.spotify.com/v1/artists/23fqKkggKUBHNkbKtXEls4",
      "id": "23fqKkggKUBHNkbKtXEls4",
      "images": [
        {
          "height": 640,
          "url": "https://i.scdn.co/image/1caaca2be637b0c56bb0ede637e36a8bcca149d1",
          "width": 640
        },
        {
          "height": 320,
          "url": "https://i.scdn.co/image/4d530661a929ae7eaddc8fb94e45dd7376f00bd6",
          "width": 320
        },
        {
          "height": 160,
          "url": "https://i.scdn.co/image/60d18612c09315ecd91b38997a69ccab25863fb6",
          "width": 160
        }
      ],
      "name": "Kygo",
      "popularity": 90,
      "type": "artist",
      "uri": "spotify:artist:23fqKkggKUBHNkbKtXEls4"
    },
    {
      "external_urls": {
        "spotify": "https://open.spotify.com/artist/6J4zegMTYP4nGJSpSDvy49"
      },
      "followers": {
        "href": null,
        "total": 23652
      },
      "genres": [
        "bass trap",
        "pop edm"
      ],
      "href": "https://api.spotify.com/v1/artists/6J4zegMTYP4nGJSpSDvy49",
      "id": "6J4zegMTYP4nGJSpSDvy49",
      "images": [
        {
          "height": 640,
          "url": "https://i.scdn.co/image/480b3d823ee4a97483d43179543cd88c61c92fc4",
          "width": 640
        },
        {
          "height": 320,
          "url": "https://i.scdn.co/image/37a3dc8f4920b440c803b91c51d9f2efd4a560d4",
          "width": 320
        },
        {
          "height": 160,
          "url": "https://i.scdn.co/image/5983af75b1f9b4e3d80a86ba735a78141f2dcb35",
          "width": 160
        }
      ],
      "name": "Rain Man",
      "popularity": 53,
      "type": "artist",
      "uri": "spotify:artist:6J4zegMTYP4nGJSpSDvy49"
    },
    {
      "external_urls": {
        "spotify": "https://open.spotify.com/artist/7DMveApC7UnC2NPfPvlHSU"
      },
      "followers": {
        "href": null,
        "total": 1198851
      },
      "genres": [
        "dance pop",
        "edm",
        "electro house",
        "electropop",
        "pop",
        "pop edm",
        "post-teen pop",
        "tropical house"
      ],
      "href": "https://api.spotify.com/v1/artists/7DMveApC7UnC2NPfPvlHSU",
      "id": "7DMveApC7UnC2NPfPvlHSU",
      "images": [
        {
          "height": 640,
          "url": "https://i.scdn.co/image/84f3ff908c5318248edca2b68d800686461b74ef",
          "width": 640
        },
        {
          "height": 320,
          "url": "https://i.scdn.co/image/885b1a5784ceead06011c7ad540b8a4b513a5492",
          "width": 320
        },
        {
          "height": 160,
          "url": "https://i.scdn.co/image/1e9c512e26d16d0280a37d13e0252b15c039f03f",
          "width": 160
        }
      ],
      "name": "Cheat Codes",
      "popularity": 82,
      "type": "artist",
      "uri": "spotify:artist:7DMveApC7UnC2NPfPvlHSU"
    },
    {
      "external_urls": {
        "spotify": "https://open.spotify.com/artist/521qvhdobR0GzhvU6TFw76"
      },
      "followers": {
        "href": null,
        "total": 166048
      },
      "genres": [
        "big room",
        "edm",
        "electro house",
        "electropop",
        "pop",
        "pop edm",
        "progressive electro house",
        "progressive house",
        "tropical house"
      ],
      "href": "https://api.spotify.com/v1/artists/521qvhdobR0GzhvU6TFw76",
      "id": "521qvhdobR0GzhvU6TFw76",
      "images": [
        {
          "height": 640,
          "url": "https://i.scdn.co/image/4a8d26d590d016ff84360e90702ba9dcb7361176",
          "width": 640
        },
        {
          "height": 320,
          "url": "https://i.scdn.co/image/11f530a676eb175dc137f5254029a738a2c3d76d",
          "width": 320
        },
        {
          "height": 160,
          "url": "https://i.scdn.co/image/a6790ff3703058b9e258b5c084af76df6b2173fb",
          "width": 160
        }
      ],
      "name": "Tritonal",
      "popularity": 69,
      "type": "artist",
      "uri": "spotify:artist:521qvhdobR0GzhvU6TFw76"
    },
    {
      "external_urls": {
        "spotify": "https://open.spotify.com/artist/2ZRQcIgzPCVaT9XKhXZIzh"
      },
      "followers": {
        "href": null,
        "total": 280491
      },
      "genres": [
        "dance pop",
        "edm",
        "electro house",
        "pop",
        "pop edm",
        "tropical house"
      ],
      "href": "https://api.spotify.com/v1/artists/2ZRQcIgzPCVaT9XKhXZIzh",
      "id": "2ZRQcIgzPCVaT9XKhXZIzh",
      "images": [
        {
          "height": 640,
          "url": "https://i.scdn.co/image/aefe640c168f3a851a35508e27e07d4256434b0f",
          "width": 640
        },
        {
          "height": 320,
          "url": "https://i.scdn.co/image/4e93b81263bbeed4d3e85ec4e4872a81854155d2",
          "width": 320
        },
        {
          "height": 160,
          "url": "https://i.scdn.co/image/9ee56aa49628d26654c536010d87155767d6569f",
          "width": 160
        }
      ],
      "name": "Gryffin",
      "popularity": 78,
      "type": "artist",
      "uri": "spotify:artist:2ZRQcIgzPCVaT9XKhXZIzh"
    },
    {
      "external_urls": {
        "spotify": "https://open.spotify.com/artist/6cwRqYSDYwWsLveCcDRhyY"
      },
      "followers": {
        "href": null,
        "total": 54013
      },
      "genres": [
        "catstep",
        "chillstep",
        "edm",
        "pop edm"
      ],
      "href": "https://api.spotify.com/v1/artists/6cwRqYSDYwWsLveCcDRhyY",
      "id": "6cwRqYSDYwWsLveCcDRhyY",
      "images": [
        {
          "height": 640,
          "url": "https://i.scdn.co/image/3189049f313391be1ea6a79110fd18cca55a94d1",
          "width": 640
        },
        {
          "height": 320,
          "url": "https://i.scdn.co/image/c229584d54aa266543769fc51f49559f7c110487",
          "width": 320
        },
        {
          "height": 160,
          "url": "https://i.scdn.co/image/2dce1f97b0c45bb2d6b297857638ac580bb816ac",
          "width": 160
        }
      ],
      "name": "Skrux",
      "popularity": 50,
      "type": "artist",
      "uri": "spotify:artist:6cwRqYSDYwWsLveCcDRhyY"
    },
    {
      "external_urls": {
        "spotify": "https://open.spotify.com/artist/4xnMDfgEmXZEEDdITKcGuE"
      },
      "followers": {
        "href": null,
        "total": 124890
      },
      "genres": [
        "big room",
        "edm",
        "electro house",
        "pop",
        "pop edm",
        "progressive electro house",
        "progressive house",
        "tropical house"
      ],
      "href": "https://api.spotify.com/v1/artists/4xnMDfgEmXZEEDdITKcGuE",
      "id": "4xnMDfgEmXZEEDdITKcGuE",
      "images": [
        {
          "height": 640,
          "url": "https://i.scdn.co/image/d84eb58603a7772fbf4e8e8a5bd9ac1f1a31043d",
          "width": 640
        },
        {
          "height": 320,
          "url": "https://i.scdn.co/image/68963c27aa21890b3d3b6c4b34b1baaedb0a3ee1",
          "width": 320
        },
        {
          "height": 160,
          "url": "https://i.scdn.co/image/3d0a2904f7020600e94285b7b4af45ec949307ab",
          "width": 160
        }
      ],
      "name": "Audien",
      "popularity": 67,
      "type": "artist",
      "uri": "spotify:artist:4xnMDfgEmXZEEDdITKcGuE"
    },
    {
      "external_urls": {
        "spotify": "https://open.spotify.com/artist/64KEffDW9EtZ1y2vBYgq8T"
      },
      "followers": {
        "href": null,
        "total": 13455871
      },
      "genres": [
        "brostep",
        "egyptian pop",
        "progressive electro house"
      ],
      "href": "https://api.spotify.com/v1/artists/64KEffDW9EtZ1y2vBYgq8T",
      "id": "64KEffDW9EtZ1y2vBYgq8T",
      "images": [
        {
          "height": 640,
          "url": "https://i.scdn.co/image/65f40b9a99ebb96921d5366537cdff7d5661d914",
          "width": 640
        },
        {
          "height": 320,
          "url": "https://i.scdn.co/image/719dab7f27ba0793b4ca7c5672ecf56d3d88467b",
          "width": 320
        },
        {
          "height": 160,
          "url": "https://i.scdn.co/image/d390ea8d34e3066c927eca1a67a9e6ccb6e943a1",
          "width": 160
        }
      ],
      "name": "Marshmello",
      "popularity": 92,
      "type": "artist",
      "uri": "spotify:artist:64KEffDW9EtZ1y2vBYgq8T"
    },
    {
      "external_urls": {
        "spotify": "https://open.spotify.com/artist/1IueXOQyABrMOprrzwQJWN"
      },
      "followers": {
        "href": null,
        "total": 842553
      },
      "genres": [
        "dance pop",
        "edm",
        "pop",
        "tropical house"
      ],
      "href": "https://api.spotify.com/v1/artists/1IueXOQyABrMOprrzwQJWN",
      "id": "1IueXOQyABrMOprrzwQJWN",
      "images": [
        {
          "height": 640,
          "url": "https://i.scdn.co/image/612056f32afd31ef02c5a369e9ab4f66e4871af5",
          "width": 640
        },
        {
          "height": 320,
          "url": "https://i.scdn.co/image/056f2ef4cb54c9403dc98ac271c4e22aa4920613",
          "width": 320
        },
        {
          "height": 160,
          "url": "https://i.scdn.co/image/aceb02adcb8eed93fb177e9ca28145d8dad5c595",
          "width": 160
        }
      ],
      "name": "Sigala",
      "popularity": 80,
      "type": "artist",
      "uri": "spotify:artist:1IueXOQyABrMOprrzwQJWN"
    },
    {
      "external_urls": {
        "spotify": "https://open.spotify.com/artist/2kd1zg9ZyGG6WjZO2dAsFd"
      },
      "followers": {
        "href": null,
        "total": 45562
      },
      "genres": [
        "australian dance",
        "progressive house",
        "progressive trance",
        "trance",
        "uplifting trance"
      ],
      "href": "https://api.spotify.com/v1/artists/2kd1zg9ZyGG6WjZO2dAsFd",
      "id": "2kd1zg9ZyGG6WjZO2dAsFd",
      "images": [
        {
          "height": 640,
          "url": "https://i.scdn.co/image/de462c2cefb3271b4c1185c7f63dc9e660df30c9",
          "width": 640
        },
        {
          "height": 320,
          "url": "https://i.scdn.co/image/40ad0a5e91c10a4c3fdf3349faeb10624b991dfc",
          "width": 320
        },
        {
          "height": 160,
          "url": "https://i.scdn.co/image/a9b9746d78eefca77a458e6687e940e016ea7886",
          "width": 160
        }
      ],
      "name": "MaRLo",
      "popularity": 58,
      "type": "artist",
      "uri": "spotify:artist:2kd1zg9ZyGG6WjZO2dAsFd"
    },
    {
      "external_urls": {
        "spotify": "https://open.spotify.com/artist/4AVFqumd2ogHFlRbKIjp1t"
      },
      "followers": {
        "href": null,
        "total": 2845163
      },
      "genres": [
        "big room",
        "dance pop",
        "edm",
        "electro house",
        "pop",
        "progressive electro house",
        "tropical house"
      ],
      "href": "https://api.spotify.com/v1/artists/4AVFqumd2ogHFlRbKIjp1t",
      "id": "4AVFqumd2ogHFlRbKIjp1t",
      "images": [
        {
          "height": 640,
          "url": "https://i.scdn.co/image/2b365693847177310dcb17992156c0a31fd4a925",
          "width": 640
        },
        {
          "height": 320,
          "url": "https://i.scdn.co/image/4d43e2d45efc1fbe66f61110dab00d378e31b69d",
          "width": 320
        },
        {
          "height": 160,
          "url": "https://i.scdn.co/image/a017a3b49e044d95701664af73a2f9cc21ecd036",
          "width": 160
        }
      ],
      "name": "Alesso",
      "popularity": 83,
      "type": "artist",
      "uri": "spotify:artist:4AVFqumd2ogHFlRbKIjp1t"
    },
    {
      "external_urls": {
        "spotify": "https://open.spotify.com/artist/6t1gpxYbY8OlLA7D2RiikQ"
      },
      "followers": {
        "href": null,
        "total": 125867
      },
      "genres": [
        "dance pop",
        "edm",
        "electro house",
        "pop",
        "tropical house"
      ],
      "href": "https://api.spotify.com/v1/artists/6t1gpxYbY8OlLA7D2RiikQ",
      "id": "6t1gpxYbY8OlLA7D2RiikQ",
      "images": [
        {
          "height": 640,
          "url": "https://i.scdn.co/image/4d1d2afe512161668de71c737b080d6c4e7cd5d2",
          "width": 640
        },
        {
          "height": 320,
          "url": "https://i.scdn.co/image/39d01aeb2bd7e04c06010b2489fbbf7026b3d1ff",
          "width": 320
        },
        {
          "height": 160,
          "url": "https://i.scdn.co/image/a7b7ebc7d6f014662ae63ed9db72479968f00cd6",
          "width": 160
        }
      ],
      "name": "Loud Luxury",
      "popularity": 79,
      "type": "artist",
      "uri": "spotify:artist:6t1gpxYbY8OlLA7D2RiikQ"
    },
    {
      "external_urls": {
        "spotify": "https://open.spotify.com/artist/3TVXtAsR1Inumwj472S9r4"
      },
      "followers": {
        "href": null,
        "total": 38153815
      },
      "genres": [
        "canadian hip hop",
        "canadian pop",
        "hip hop",
        "pop rap",
        "rap"
      ],
      "href": "https://api.spotify.com/v1/artists/3TVXtAsR1Inumwj472S9r4",
      "id": "3TVXtAsR1Inumwj472S9r4",
      "images": [
        {
          "height": 640,
          "url": "https://i.scdn.co/image/012ecd119617ac24ab56620ace4b81735b172686",
          "width": 640
        },
        {
          "height": 320,
          "url": "https://i.scdn.co/image/55e3fb26d67b4d71321440b3a440eecd9d8f20f7",
          "width": 320
        },
        {
          "height": 160,
          "url": "https://i.scdn.co/image/ad10179d5f27ba77c7d6c95abd6e26f6a227e0d5",
          "width": 160
        }
      ],
      "name": "Drake",
      "popularity": 100,
      "type": "artist",
      "uri": "spotify:artist:3TVXtAsR1Inumwj472S9r4"
    },
    {
      "external_urls": {
        "spotify": "https://open.spotify.com/artist/4LZ4De2MoO3lP6QaNCfvcu"
      },
      "followers": {
        "href": null,
        "total": 115666
      },
      "genres": [
        "edm",
        "electropop",
        "indie poptimism",
        "pop",
        "pop edm"
      ],
      "href": "https://api.spotify.com/v1/artists/4LZ4De2MoO3lP6QaNCfvcu",
      "id": "4LZ4De2MoO3lP6QaNCfvcu",
      "images": [
        {
          "height": 640,
          "url": "https://i.scdn.co/image/e441da55edc98fc84f34daa91700c7654fea2153",
          "width": 640
        },
        {
          "height": 320,
          "url": "https://i.scdn.co/image/21e337ef50e90a3df0f604fcec06f43ada85f303",
          "width": 320
        },
        {
          "height": 160,
          "url": "https://i.scdn.co/image/bfc5610dc686219ab8eec76353cb3963bdc131e5",
          "width": 160
        }
      ],
      "name": "Said the Sky",
      "popularity": 68,
      "type": "artist",
      "uri": "spotify:artist:4LZ4De2MoO3lP6QaNCfvcu"
    },
    {
      "external_urls": {
        "spotify": "https://open.spotify.com/artist/4kYSro6naA4h99UJvo89HB"
      },
      "followers": {
        "href": null,
        "total": 8541731
      },
      "genres": [
        "pop",
        "rap"
      ],
      "href": "https://api.spotify.com/v1/artists/4kYSro6naA4h99UJvo89HB",
      "id": "4kYSro6naA4h99UJvo89HB",
      "images": [
        {
          "height": 640,
          "url": "https://i.scdn.co/image/85145039b32b56e911bd2ad39f28f96277aea9f3",
          "width": 640
        },
        {
          "height": 320,
          "url": "https://i.scdn.co/image/9f496eb00e9ccaf3c45731b744659512b7fc1537",
          "width": 320
        },
        {
          "height": 160,
          "url": "https://i.scdn.co/image/9777335c2f63fdd2e5c2fc3de6a393a45e46836e",
          "width": 160
        }
      ],
      "name": "Cardi B",
      "popularity": 93,
      "type": "artist",
      "uri": "spotify:artist:4kYSro6naA4h99UJvo89HB"
    },
    {
      "external_urls": {
        "spotify": "https://open.spotify.com/artist/5dFuu05x8SPBuymudrTBU8"
      },
      "followers": {
        "href": null,
        "total": 45995
      },
      "genres": [
        "edm",
        "progressive house",
        "progressive trance",
        "trance",
        "uplifting trance"
      ],
      "href": "https://api.spotify.com/v1/artists/5dFuu05x8SPBuymudrTBU8",
      "id": "5dFuu05x8SPBuymudrTBU8",
      "images": [
        {
          "height": 640,
          "url": "https://i.scdn.co/image/9bbea229ccd55cc2c6e56d603627cd96442a8ae9",
          "width": 640
        },
        {
          "height": 320,
          "url": "https://i.scdn.co/image/84b3540da518a3eee3f7f1b27e041b700d8d11dc",
          "width": 320
        },
        {
          "height": 160,
          "url": "https://i.scdn.co/image/3a62fb2199ec53c2d8de617cdd9e20c673b8cb53",
          "width": 160
        }
      ],
      "name": "Andrew Bayer",
      "popularity": 59,
      "type": "artist",
      "uri": "spotify:artist:5dFuu05x8SPBuymudrTBU8"
    },
    {
      "external_urls": {
        "spotify": "https://open.spotify.com/artist/7gZfnEnfiaHzxARJ2LeXrf"
      },
      "followers": {
        "href": null,
        "total": 4069153
      },
      "genres": [
        "emo rap"
      ],
      "href": "https://api.spotify.com/v1/artists/7gZfnEnfiaHzxARJ2LeXrf",
      "id": "7gZfnEnfiaHzxARJ2LeXrf",
      "images": [
        {
          "height": 640,
          "url": "https://i.scdn.co/image/cb2fa696eab4e8295ed211d1a051027145afa10a",
          "width": 640
        },
        {
          "height": 320,
          "url": "https://i.scdn.co/image/4edd3d39ac91d064a4dc1d0d7f34b81a35ab94a6",
          "width": 320
        },
        {
          "height": 160,
          "url": "https://i.scdn.co/image/40720df097ca6999ce0757e18bd43b55e30a9d8a",
          "width": 160
        }
      ],
      "name": "6ix9ine",
      "popularity": 87,
      "type": "artist",
      "uri": "spotify:artist:7gZfnEnfiaHzxARJ2LeXrf"
    }
  ],
  "total": 38,
  "limit": 25,
  "offset": 0,
  "href": "https://api.spotify.com/v1/me/top/artists?limit=25&offset=0&time_range=short_term",
  "previous": null,
  "next": "https://api.spotify.com/v1/me/top/artists?limit=25&offset=25&time_range=short_term"
}
